{
	"config": {
		
		"vcx" : {
			"path": "../dll",
			"proj": "luaRousr.vcxproj",
			"cppPath": "./gmlresource/",
			
			"classPrefix": "CGML",
			"filePrefix": "GML",
			"headerIncludes": [ "../luaRousr.h" ],

			"cppFilterFolder": "Source Files\\Lua\\GMLBindings"
		},

		"gml": {
			"path": "../luaRousr/",
			"filePrefix": "__luaRousr_binding_",
			"group": "rousr/luaRousr/internal/bindings",

			"callName": "__luaRousr_callBinding",
			"callGroup": "rousr/luaRousr/internal"
		}
	},

	"lib": {
		"functions": {
			"asset_get_type":  { "args": [ "int" ], "return": "string" },
			"asset_get_index": { "args": [ "string" ], "return": "int" },

			"instance_get_index": { "args": [ "string" ], "return": "int" }
		}, 



		"submodules": {
			"audio": { }
		}

	},

	"resources": {
			
		"common": {
			"abstract": "true",

			"hasId": true,
			
			"variables": {
				"id": { "type": "int", "exports": [ "cpp", "gml" ], "flags": [ "readonly" ] }
			}
		},

		"instance": {
			"baseResource": "common",
			"constructor":  "instance_get_index",
			"variables": {
				"x":         { "type": "double", "exports": [ "cpp", "gml" ] },
				"y":         { "type": "double", "exports": [ "cpp", "gml" ] },
				"xstart":    { "type": "double", "exports": [ "cpp", "gml" ] },
				"ystart":    { "type": "double", "exports": [ "cpp", "gml" ] },
				"xprevious": { "type": "double", "exports": [ "cpp", "gml" ] },
				"yprevious": { "type": "double", "exports": [ "cpp", "gml" ] },

				"visible":      { "type": "bool", "exports": [ "cpp", "gml" ] },
				"solid":        { "type": "bool", "exports": [ "cpp", "gml" ] },
				"persistent":   { "type": "bool", "exports": [ "cpp", "gml" ] },
				"depth":        { "type": "int",  "exports": [ "cpp", "gml" ] },
				"layer":        { "type": "int",  "exports": [ "cpp", "gml" ] },
				"alarm":        { "type": "",     "exports": [ "cpp", "gml" ], "flags": [ "unsupported" ] },
				"object_index": { "type": "int",  "exports": [ "cpp", "gml" ], "flags": [ "readonly"] },

				"sprite_index":   { "type": "int",  "exports": [ "cpp", "gml" ], "resource": "sprite" },
				"sprite_width":   { "type": "int",  "exports": [ "cpp", "gml" ] },
				"sprite_height":  { "type": "int",  "exports": [ "cpp", "gml" ] },
				"sprite_xoffset": { "type": "int",  "exports": [ "cpp", "gml" ] },
				"sprite_yoffset": { "type": "int",  "exports": [ "cpp", "gml" ] },
				"image_alpha":  { "type": "float",  "exports": [ "cpp", "gml" ] },
				"image_angle":  { "type": "float",  "exports": [ "cpp", "gml" ] },
				"image_blend":  { "type": "color",  "exports": [ "cpp", "gml" ] },
				"image_index":  { "type": "int",    "exports": [ "cpp", "gml" ] },
				"image_number": { "type": "int",    "exports": [ "cpp", "gml" ] },
				"image_speed":  { "type": "double", "exports": [ "cpp", "gml" ] },
				"image_xscale": { "type": "double", "exports": [ "cpp", "gml" ] },
				"image_yscale": { "type": "double", "exports": [ "cpp", "gml" ] },
				
				"mask_index":  { "type": "int", "exports": [ "cpp", "gml" ] },
				"bbox_bottom": { "type": "double", "exports": [ "cpp", "gml" ] },
				"bbox_left":   { "type": "double", "exports": [ "cpp", "gml" ] },
				"bbox_right":  { "type": "double", "exports": [ "cpp", "gml" ] },
				"bbox_top":    { "type": "double", "exports": [ "cpp", "gml" ] },

				"gravity_direction": { "type": "double", "exports": [ "cpp", "gml" ] },
				"direction": { "type": "double", "exports": [ "cpp", "gml" ] },
				"friction":  { "type": "double", "exports": [ "cpp", "gml" ] },
				"gravity":   { "type": "double", "exports": [ "cpp", "gml" ] },
				"hspeed":    { "type": "double", "exports": [ "cpp", "gml" ] },
				"vspeed":    { "type": "double", "exports": [ "cpp", "gml" ] },
				"speed":     { "type": "double", "exports": [ "cpp", "gml" ] },

				"path_index":            { "type": "int",    "exports": [ "cpp", "gml" ] },
				"path_position":         { "type": "double", "exports": [ "cpp", "gml" ] },
				"path_positionprevious": { "type": "double", "exports": [ "cpp", "gml" ] },
				"path_speed":            { "type": "double", "exports": [ "cpp", "gml" ] },
				"path_scale":            { "type": "double", "exports": [ "cpp", "gml" ] },
				"path_orientation":      { "type": "double", "exports": [ "cpp", "gml" ] },
				"path_endaction":        { "type": "int",    "exports": [ "cpp", "gml" ] },

				"timeline_index":    { "type": "int", "exports": [ "cpp", "gml" ] },
				"timeline_running":  { "type": "bool", "exports": [ "cpp", "gml" ] },
				"timeline_speed":    { "type": "double", "exports": [ "cpp", "gml" ] },
				"timeline_position": { "type": "double", "exports": [ "cpp", "gml" ] },
				"timeline_loop":     { "type": "bool", "exports": [ "cpp", "gml" ] }
			},

			"static_functions": {
				"create_layer":      { "gml": "instance_create_layer", "return": "number", "args": [ "number", "number", "number", "number" ] },
				"create_layer_name": { "gml": "instance_create_layer", "return": "number", "args": [ "number", "number", "number", "number" ] },
				"create_depth":      { "gml": "instance_create_depth", "return": "number", "args": [ "number", "number", "number", "number" ] },
			},

			"functions": {
				"destroy":      { "gml": "instance_destroy" },
				"exists":       { "gml": "instance_exists", "return": "number", "args": [ ] },
				"change":       { "gml": "instance_change", "return": "number", "args": [ ] },
				"copy":         { "gml": "instance_copy", "return": "number", "args": [ ] },
				"find":         { "gml": "instance_find", "return": "number", "args": [ ] },
				"furthest":     { "gml": "instance_furthest", "return": "number", "args": [ ] },
				"nearest":      { "gml": "instance_nearest", "return": "number", "args": [ ] },
				"number":       { "gml": "instance_number", "return": "number", "args": [ ] },
				"place":        { "gml": "instance_place", "return": "number", "args": [ ] },
				"position":     { "gml": "instance_position", "return": "number", "args": [ ] }
			}
		},

		"sprite": { 
			"baseResource": "common"
		},
		
		"script": { 
			"baseResource": "common"
		},
		
		"tileset": { 
			"baseResource": "common"
		},
		
		"object": { 
			"baseResource": "common"
		},
		
		"shader": { 
			"baseResource": "common"
		},
		
		"room": { 
			"baseResource": "common"
		},
		
		"font": { 
			"baseResource": "common"
		},

		"tilemap": { },

		"buffer": { 
			"functions": {
				"copy": { },
				"buffer_exists": { },
				"buffer_create": { },
				"buffer_create_from_vertex_buffer": { },
				"buffer_create_from_vertex_buffer_ext": { },
				"buffer_delete": { },
				"buffer_read": { },
				"buffer_write": { },
				"buffer_fill": { },
				"buffer_seek": { },
				"buffer_tell": { },
				"buffer_peek": { },
				"buffer_poke": { },
				"buffer_save": { },
				"buffer_save_ext": { },
				"buffer_save_async": { },
				"buffer_load": { },
				"buffer_load_ext": { },
				"buffer_load_async": { },
				"buffer_async_group_begin": { },
				"buffer_async_group_option": { },
				"buffer_async_group_end": { },
				"buffer_copy": { },
				"buffer_copy_from_vertex_buffer": { },
				"buffer_get_type": { },
				"buffer_get_alignment": { },
				"buffer_get_address": { },
				"buffer_get_size": { },
				"buffer_get_surface": { },
				"buffer_set_surface": { },
				"buffer_resize": { },
				"buffer_sizeof": { },
				"buffer_md5": { },
				"buffer_sha1": { },
				"buffer_base64_encode": { },
				"buffer_base64_decode": { },
				"buffer_base64_decode_ext": { }
			}
		}
	}

}